# This file was created Sat Jun 22 13:40:53 2024
# Created by:
#                      :-) GROMACS - gmx hbond, 2024.2 (-:
# 
# Executable:   /usr/bin/gmx
# Data prefix:  /usr
# Working dir:  /home/max/develop/gmx-hbond-refdata
# Command line:
#   gmx hbond -f materials/brazzein.xtc -s materials/brazzein.tpr -o results/brazzein.Water-Water.ndx -r Water -t Water -num results/brazzein.Water-Water.num.xvg -dist results/brazzein.Water-Water.dist.xvg -ang results/brazzein.Water-Water.ang.xvg -dan results/brazzein.Water-Water.dan.xvg
# gmx hbond is part of G R O M A C S:
#
# Gnomes, ROck Monsters And Chili Sauce
#
@    title "Number of hydrogen bonds"
@    xaxis  label "Time (ps)"
@    yaxis  label "Hbonds"
@TYPE xy
@ view 0.15, 0.15, 0.75, 0.85
@ legend on
@ legend box on
@ legend loctype view
@ legend 0.78, 0.8
@ legend length 2
@ s0 legend "Hydrogen bonds"
      0.000      10782
     10.000      10855
     20.000      10916
     30.000      10835
     40.000      10888
     50.000      10975
