# This file was created Sat Jun 22 13:40:53 2024
# Created by:
#                      :-) GROMACS - gmx hbond, 2024.2 (-:
# 
# Executable:   /usr/bin/gmx
# Data prefix:  /usr
# Working dir:  /home/max/develop/gmx-hbond-refdata
# Command line:
#   gmx hbond -f materials/brazzein.xtc -s materials/brazzein.tpr -o results/brazzein.Protein-Protein.ndx -r Protein -t Protein -num results/brazzein.Protein-Protein.num.xvg -dist results/brazzein.Protein-Protein.dist.xvg -ang results/brazzein.Protein-Protein.ang.xvg -dan results/brazzein.Protein-Protein.dan.xvg
# gmx hbond is part of G R O M A C S:
#
# Gnomes, ROck Monsters And Chili Sauce
#
@    title "Number of Donors and Acceptors"
@    xaxis  label "Time (ps)"
@    yaxis  label "Donors/Acceptors"
@TYPE xy
@ view 0.15, 0.15, 0.75, 0.85
@ legend on
@ legend box on
@ legend loctype view
@ legend 0.78, 0.8
@ legend length 2
@ s0 legend "Number of Donors"
@ s1 legend "Number of Acceptors"
         0         34         32
        10         35         32
        20         31         30
        30         31         29
        40         33         31
        50         36         33
