# This file was created Sat Jun 22 13:40:54 2024
# Created by:
#                      :-) GROMACS - gmx hbond, 2024.2 (-:
# 
# Executable:   /usr/bin/gmx
# Data prefix:  /usr
# Working dir:  /home/max/develop/gmx-hbond-refdata
# Command line:
#   gmx hbond -f materials/cspa.xtc -s materials/cspa.tpr -o results/cspa.Protein-Water.ndx -r Protein -t Water -num results/cspa.Protein-Water.num.xvg -dist results/cspa.Protein-Water.dist.xvg -ang results/cspa.Protein-Water.ang.xvg -dan results/cspa.Protein-Water.dan.xvg
# gmx hbond is part of G R O M A C S:
#
# Green Red Orange Magenta Azure Cyan Skyblue
#
@    title "Hydrogen Bond Angle Distribution Histogram"
@    xaxis  label "Hydrogen - Donor - Acceptor Angle (degrees)"
@    yaxis  label "Probability"
@TYPE xy
       0.5  0.0032432
       1.5  0.0108108
       2.5  0.0194595
       3.5  0.0248649
       4.5  0.0378378
       5.5  0.0432432
       6.5  0.0378378
       7.5  0.0389189
       8.5  0.0497297
       9.5  0.0518919
      10.5  0.0432432
      11.5  0.0518919
      12.5  0.0345946
      13.5  0.0464865
      14.5  0.0421622
      15.5  0.0475676
      16.5  0.0410811
      17.5  0.0400000
      18.5  0.0508108
      19.5  0.0400000
      20.5  0.0367568
      21.5  0.0324324
      22.5  0.0237838
      23.5  0.0259459
      24.5  0.0216216
      25.5  0.0194595
      26.5  0.0162162
      27.5  0.0151351
      28.5  0.0291892
      29.5  0.0237838
