# This file was created Sat Jun 22 13:40:55 2024
# Created by:
#                      :-) GROMACS - gmx hbond, 2024.2 (-:
# 
# Executable:   /usr/bin/gmx
# Data prefix:  /usr
# Working dir:  /home/max/develop/gmx-hbond-refdata
# Command line:
#   gmx hbond -f materials/zinkfinger.xtc -s materials/zinkfinger.tpr -o results/zinkfinger.Protein-Water.ndx -r Protein -t Water -num results/zinkfinger.Protein-Water.num.xvg -dist results/zinkfinger.Protein-Water.dist.xvg -ang results/zinkfinger.Protein-Water.ang.xvg -dan results/zinkfinger.Protein-Water.dan.xvg
# gmx hbond is part of G R O M A C S:
#
# S  C  A  M  O  R  G
#
@    title "Number of Donors and Acceptors"
@    xaxis  label "Time (ps)"
@    yaxis  label "Donors/Acceptors"
@TYPE xy
@ view 0.15, 0.15, 0.75, 0.85
@ legend on
@ legend box on
@ legend loctype view
@ legend 0.78, 0.8
@ legend length 2
@ s0 legend "Number of Donors"
@ s1 legend "Number of Acceptors"
         0        171        145
        10        173        156
        20        177        152
        30        171        156
        40        173        147
        50        173        155
